###################
# emojis - Plants #
###################

+-----------------------------------------+
|              plant-other                |
+-----------------------------------------+

 1   U+2618    ☘   Shamrock
--------------------------------------------------------
